Nucleotide Metabolism
…
What about comparisons between experiments?

vpa.nucl.abun.df %>% 
  filter(path_name == "Purine metabolism") %>% 
  mutate(alt_cmpnd_name = paste(compound_full_exp, " (", mode, ")", sep = ""))

# A tibble: 1,089 x 12
   experiment mode  Samples Treatment compound_short compound_full_e~
   <chr>      <chr> <chr>   <chr>     <chr>          <chr>           
 1 vpa_only   cell~ T1_P1_~ cntrl     VPAnC48        Adenine         
 2 vpa_only   cell~ T1_P1_~ cntrl     VPAnC48        Adenine         
 3 vpa_only   cell~ T1_P1_~ cntrl     VPAnC48        Adenine         
 4 vpa_only   cell~ T1_P1_~ vpa       VPAnC48        Adenine         
 5 vpa_only   cell~ T1_P1_~ vpa       VPAnC48        Adenine         
 6 vpa_only   cell~ T1_P1_~ vpa       VPAnC48        Adenine         
 7 vpa_only   cell~ T1_P2_~ cntrl     VPAnC48        Adenine         
 8 vpa_only   cell~ T1_P2_~ cntrl     VPAnC48        Adenine         
 9 vpa_only   cell~ T1_P2_~ vpa       VPAnC48        Adenine         
10 vpa_only   cell~ T1_P2_~ vpa       VPAnC48        Adenine         
# ... with 1,079 more rows, and 6 more variables: log2_resid_abun <dbl>,
#   cas_id <chr>, KEGG <chr>, path_name <chr>, significant <lgl>,
#   alt_cmpnd_name <chr>
…
