seahorse_data_analysis
…
data %>% 
  group_by(Well) %>% 
  summarize(avg_ocr = mean(OCR)) %>% 
  arrange(avg_ocr)

## # A tibble: 92 x 2
##    Well  avg_ocr
##    <chr>   <dbl>
##  1 H04    -27.1 
##  2 G08      5.11
##  3 F01     50.7 
##  4 G05     55.5 
##  5 G01     61.9 
##  6 F04     68.2 
##  7 C11     69.4 
##  8 B09     73.6 
##  9 D06     75.6 
## 10 C01     76.5 
## # ... with 82 more rows

data <- data %>% 
  filter(Well != "H04" & Well != "G08")
data %>% 
  group_by(Well) %>% 
  summarize(avg_ocr = mean(OCR)) %>% 
  arrange(desc(avg_ocr))

## # A tibble: 90 x 2
##    Well  avg_ocr
##    <chr>   <dbl>
##  1 D12      279.
##  2 H10      224.
##  3 D10      196.
##  4 F08      191.
##  5 D04      186.
##  6 G06      174.
##  7 G07      173.
##  8 B08      166.
##  9 D07      166.
## 10 F06      165.
## # ... with 80 more rows
…
